{
    "roots": {
        "bookmark_bar": {
            "children": [
                {
                    "children": [
                        {
                            "description": "",
                            "keyword": "",
                            "name": "Emmabuntüs",
                            "type": "url",
                            "url": "https://emmabuntus.org/",
                            "visit_count": 2
                        },
                        {
                            "description": "",
                            "keyword": "",
                            "name": "Tutorials",
                            "type": "url",
                            "url": "https://tutos.emmabuntus.org/",
                            "visit_count": 2
                        },
                        {
                            "description": "",
                            "keyword": "",
                            "name": "Forum",
                            "type": "url",
                            "url": "https://forum.emmabuntus.org/",
                            "visit_count": 1
                        },
                        {
                            "description": "",
                            "keyword": "",
                            "name": "Videos",
                            "type": "url",
                            "url": "https://videos.emmabuntus.org/",
                            "visit_count": 7
                        },
                        {
                            "description": "",
                            "keyword": "",
                            "name": "Blog",
                            "type": "url",
                            "url": "https://blog.emmabuntus.org/",
                            "visit_count": 2
                        },
                        {
                            "description": "",
                            "keyword": "",
                            "name": "Emmabuntüs",
                            "type": "url",
                            "url": "https://en.wikipedia.org/wiki/Emmabunt%C3%BCs",
                            "visit_count": 2
                        }
                    ],
                    "description": "",
                    "expanded": true,
                    "expanded_sidebar": false,
                    "name": "Emmabuntüs",
                    "type": "folder"
                },
                {
                    "description": "",
                    "keyword": "",
                    "name": "YovoTogo",
                    "type": "url",
                    "url": "https://yovotogo.fr/",
                    "visit_count": 0
                },
                {
                    "description": "",
                    "keyword": "",
                    "name": "JUMP Lab'Orione",
                    "type": "url",
                    "url": "https://jump-lab-orione.tg/",
                    "visit_count": 0
                },
                {
                    "description": "",
                    "keyword": "",
                    "name": "Montpel'libre",
                    "type": "url",
                    "url": "https://montpellibre.fr/",
                    "visit_count": 0
                },
                {
                    "description": "",
                    "keyword": "",
                    "name": "Lilo",
                    "type": "url",
                    "url": "https://www.lilo.org/",
                    "visit_count": 0
                }
            ],
            "description": "Signets placés dans la barre de signets",
            "expanded": true,
            "expanded_sidebar": true,
            "name": "Barre de signets",
            "type": "folder"
        },
        "bookmark_menu": {
            "children": [
            ],
            "description": "Signets placés dans le menu des signets",
            "expanded": true,
            "expanded_sidebar": true,
            "name": "Menu des signets",
            "type": "folder"
        },
        "other": {
            "children": [
            ],
            "description": "Tous les autres signets",
            "expanded": true,
            "expanded_sidebar": true,
            "name": "Signets non classés",
            "type": "folder"
        }
    },
    "version": 1
}
